{
    "auth": {
        "accessDenied": {
            "title": "تم رفض الدخول",
            "description1": "العودة إلى",
            "description2": "أو ارجع إلى",
            "previousPage": " الصفحة السابقة ",
            "dashboardPage": " لوحة المؤشرات"
        },
        "changeEmail": {
            "text": {
                "validateSuccess": "تم تغيير العنوان البريدي بنجاح",
                "validateHasExpired": "انتهت صلاحية البريد الإلكتروني الجديد لأنه لم يتم تأكيده ، يرجى المحاولة مرة أخرى.",
                "validateFail": "المفتاح غير موجود.",
                "keyAlreadyBeUsed": "هذا الرابط مستخدم من قبل."
            },
            "link": {
                "goToLogin": "اذهب إلى صفحة الدخول",
                "goToCompanyPage": "اذهب إلى صفحة قائمة الشركة",
                "goToChangeEmailPage": "اذهب إلى صفحة تغيير البريد الإلكتروني"
            }
        },
        "selfEnable": {
            "text": {
                "validateSuccess": "لقد تم إعادة تفعيل الحساب بنجاح.",
                "validateHasExpired": "انتهت صلاحية المفتاح لأنه لم يتم تأكيده ، يرجى المحاولة مرة أخرى.",
                "validateFail": "المفتاح غير موجود.",
                "keyAlreadyBeUsed": "هذا الرابط مستخدم من قبل."
            }
        },
        "common": {
            "button": {
                "ok": "موافق"
            },
            "errorMessage": {
                "emailInvalid": "البريد الإلكتروني غير صالح. رجاء قم بإدخال بريد الكتروني صحيح.",
                "emailRequired": "مطلوب تعبئة البريد الإلكتروني.",
                "passwordRequired": "مطلوب تعبئة كلمة المرور.",
                "passwordPattern": "يجب أن تتكون كلمة المرور من ٨ أحرف على الأقل ، وتحتوي على رقم واحد على الأقل ، وبدون مسافة ، وتحتوي على مزيج من الأحرف الكبيرة والصغيرة."
            },
            "icon": {
                "hidePassword": "اخفاء كلمة المرور",
                "showPassword": "عرض كلمة المرور",
                "hideRepeatPassword": "إخفاء تكرار كلمة المرور",
                "showRepeatPassword": "إظهار تكرار كلمة المرور"
            },
            "text": {
                "contactUs": "اتصل بنا",
                "ifYouNeedHelp": "إذا كنت بحاجة للمساعدة",
                "unauthenticatedFooter": "اكاونتيا | كل الحقوق محفوظة | {{year}}",
                "accountia": "اكاونتيا"
            }
        },
        "forgotPasswordPage": {
            "button": {
                "sendRequest": "ارسل طلب",
                "sendRequestTooltip": "انقر هنا لإرسال الطلب",
                "submittingRequest": "تقديم الطلب"
            },
            "error": {
                "emailRequired": "مطلوب تعبئة البريد الإلكتروني.",
                "emailInvalid": "البريد الإلكتروني غير صالح. رجاء قم بإدخال بريد الكتروني صحيح."
            },
            "inputField": {
                "email": "البريد الإلكتروني",
                "emailTooltip": "أدخل عنوان البريد الإلكتروني المرتبط بحسابك هنا"
            },
            "link": {
                "signUp": "اشتراك",
                "signUpTooltip": "إذا لم يكن لديك ملف تعريف ، فيمكنك تسجيل واحد هنا"
            },
            "text": {
                "forgotPasswordHeader": "هل نسيت كلمة السر؟",
                "requestSent": "تم ارسال الطلب",
                "forgotPasswordMessage": "أدخل عنوان البريد الإلكتروني الذي تستخدمه لحسابك وسنرسل لك بريدًا إلكترونيًا يحتوي على رابط إعادة تعيين كلمة المرور.",
                "forgotPasswordMailSent": "يرجى التحقق من بريدك والنقر فوق الرابط -إعادة تعيين كلمة المرور الخاصة بي- لإعداد كلمة مرور جديدة. سيتم إرسال البريد الإلكتروني في غضون دقيقتين وهو صالح لمدة ساعة",
                "verificationEmailNotFound": "إذا كنت لا ترى البريد الإلكتروني في صندوق الوارد الخاص بك ، يرجى التحقق من مجلد البريد العشوائي الخاص بك.",
                "verificationEmailNotReceived": "إذا لم تتلق أي بريد إلكتروني ، فيرجى محاولة إعادة تعيين كلمة المرور الخاصة بك مرة أخرى."
            }
        },
        "notification": {
            "resendEmail": {
                "success": "تم إرسال البريد"
            },
            "enableUser": {
                "success": "تم إرسال التحقق إلى بريدك الإلكتروني.",
                "error": "فشل إرسال البريد. الرجاء معاودة المحاولة في وقت لاحق."
            },
            "contactUs": {
                "error": "فشل إرسال التعليقات ، يرجى المحاولة مرة أخرى لاحقًا"
            }
        },
        "resendVerificationEmail": {
            "button": {
                "resendEmail": "إعادة إرسال البريد الإلكتروني"
            },
            "text": {
                "header": "لم يتم التحقق من البريد الإلكتروني",
                "content": "انقر فوق الرابط المرسل إلى بريدك من أجل تعيين كلمة المرور و هو صالح لمدة ساعة فقط"
            }
        },
        "resetPasswordPage": {
            "button": {
                "submitting": "إرسال طلب إعادة تعيين كلمة المرور",
                "resetPasswordRequest": "طلب إعادة تعيين كلمة المرور"
            },
            "error": {
                "passwordRequired": "مطلوب كلمة مرور جديدة.",
                "passwordPattern": "يجب أن تتكون كلمة المرور من ٨ أحرف على الأقل ، وتحتوي على رقم واحد على الأقل ، وبدون مسافة ، وتحتوي على مزيج من الأحرف الكبيرة والصغيرة.",
                "repeatRequired": "مطلوب تأكيد كلمة المرور.",
                "repeatMatch": "كلمات المرور غير متطابقة"
            },
            "inputField": {
                "password": "كلمة مرور جديدة",
                "repeatPassword": "تأكيد كلمة المرور الجديدة",
                "passwordTooltip": "أدخل كلمة المرور الخاصة بك هنا",
                "repeatPasswordTooltip": "أدخل كلمة المرور المكررة هنا",
                "resetPassword": "إعادة تعيين كلمة المرور"
            },
            "text": {
                "resetPasswordHeader": "إعادة تعيين كلمة المرور"
            }
        },
        "signInPage": {
            "button": {
                "signIn": "تسجيل الدخول",
                "signInTooltip": "اضغط هنا لتسجيل الدخول",
                "submittingSignIn": "تسجيل الدخول"
            },
            "inputField": {
                "email": "البريد الإلكتروني",
                "emailTooltip": "أدخل عنوان بريدك الالكتروني هنا",
                "password": "كلمة المرور",
                "passwordTooltip": "أدخل كلمة المرور الخاصة بك هنا"
            },
            "placeholder": {
                "email": "testname@gmail.com",
                "phoneNumber": "٠١٢٢٢٥٥٨٨٩٩"
            },
            "link": {
                "forgotPassword": "نسيت كلمة المرور؟",
                "forgotPasswordTooltip": "إذا نسيت كلمة المرور الخاصة بحسابك ، فيمكنك النقر هنا لإعادة تعيين كلمة المرور",
                "signUp": "اشتراك",
                "signUpTooltip": "إذا لم يكن لديك ملف تعريف ، يمكنك تسجيل واحد هنا"
            },
            "text": {
                "welcomeHeader": "أهلا بك"
            },
            "dialog": {
                "enableAccountTitle": "تفعيل الحساب",
                "enableAccountMessage": "هل تريد تفعيل الحساب",
                "enableAccountMessage2": "بمجرد قبولك ، سيتم إرسال التحقق إلى بريدك الإلكتروني"
            }
        },
        "signUpPage": {
            "button": {
                "signUp": "اشتراك",
                "submittingRequest": "ارسال الطلب",
                "ok": "موافق"
            },
            "error": {
                "emailRequired": "مطلوب تعبئة البريد الإلكتروني.",
                "invalidEmail": "البريد الإلكتروني غير صالح. رجاء قم بإدخال بريد الكتروني صحيح.",
                "nameRequired": "مطلوب إدخال الإسم.",
                "phoneRequired": "مطلوب إدخال رقم الهاتف.",
                "phoneInvalid": "رقم الهاتف غير صالح.",
                "passwordRequired": "مطلوب إدخال كلمة المرور.",
                "emailAlreadyExist": "هذا البريد الإلكتروني مستخدم بالفعل الرجاء إدخال عنوان اخر. إذا نسيت كلمة المرور يرجى النقر على الرابط -نسيت كلمة المرور- من أجل إعادة تعيينها",
                "existPhoneNumber": "يوجد بالفعل مستخدم برقم الهاتف هذا.",
                "invalid": "غير صالح",
                "required": "مطلوب",
                "are": "نكون",
                "is": "يكون",
                "recaptchaRequired": "مطلوب Recaptcha."
            },
            "inputField": {
                "email": "البريد الإلكتروني",
                "emailTooltip": "أدخل عنوان بريدك الالكتروني هنا",
                "name": "الإسم",
                "nameTooltip": "أدخل اسمك هنا",
                "password": "كلمة المرور",
                "passwordTooltip": "أدخل كلمة مرور من اختيارك هنا",
                "phoneNumber": "رقم الهاتف",
                "phoneTooltip": "أضف رقم الهاتف هنا ، مثال: ٠١٢٢٢٥٥٨٨٩٩",
                "username": "البريد الإلكتروني",
                "phoneNumbers": "رقم الهاتف"
            },
            "placeholder": {
                "email": "johndoe@gmail.com",
                "phoneNumber": "٠١٢٢٢٥٥٨٨٩٩",
                "name": "جون دوي"
            },
            "text": {
                "verificationEmailNotFound": "إذا كنت لا ترى البريد الإلكتروني في صندوق الوارد الخاص بك ، يرجى التحقق من مجلد البريد العشوائي الخاص بك.",
                "passwordPattern": "يجب أن تتكون كلمة المرور من ٨ أحرف على الأقل ، وتحتوي على رقم واحد على الأقل ، وبدون مسافة ، وتحتوي على مزيج من الأحرف الكبيرة والصغيرة.",
                "signUpHeader": "تسجيل",
                "signUpSuccessHeader": "تم التسجيل بنجاح",
                "signUpSuccessMsg": "من أجل تنشيط الحساب, الرابط صالح لمدة ساعة {{email}} تم تسجيل حسابك بنجاح الرجاء النقر فوق الرابط المرسل الى.",
                "byClickingHere": "بالضغط هنا ، فإنك توافق على",
                "customerAgreement": "اتفاقية العميل"
            },
            "link": {
                "signIn": "تسجيل الدخول",
                "signInTooltip": "إذا كان لديك ملف تعريف بالفعل ، فيمكنك تسجيل الدخول هنا"
            }
        },
        "selectOptions": {
            "GeneralSupport": "الدعم العام",
            "LoginIssues": "مشاكل تسجيل الدخول",
            "ApplicationError": "خطأ في التطبيق"
        },
        "confirmSignUpSuccessPage": {
            "text": {
                "keyAlreadyBeUsedTitle": "تفعيل الحساب بنجاح",
                "keyAlreadyBeUsed": "تم تنشيط حسابك.",
                "keyNotFoundTitle": "فشل في عملية تنشيط الحساب",
                "keyNotFound": "المفتاح المنشط غير صالح"
            }
        }
    }
}